%YAML 1.1
%TAG !u! tag:unity3d.com,2011:
--- !u!114 &11400000
MonoBehaviour:
  m_ObjectHideFlags: 0
  m_CorrespondingSourceObject: {fileID: 0}
  m_PrefabInstance: {fileID: 0}
  m_PrefabAsset: {fileID: 0}
  m_GameObject: {fileID: 0}
  m_Enabled: 1
  m_EditorHideFlags: 0
  m_Script: {fileID: 11500000, guid: 281b56aa5b5123047bc0c35da893472d, type: 3}
  m_Name: AcidTileBehaviour
  m_EditorClassIdentifier: 
  TileData:
    TileName: Acid
    TileScore: 4
    TileSprite: {fileID: 7439938366344304438, guid: c7d0b19672e97fb45a8df695a8290c1a, type: 3}
    TileDescription: "Want a cake with a twist? Add a nice layer of -42pH acid for
      that tingling oomph.\r Acid dissolves most substances like Sponge, Low effort
      jam and Space weevils."
  TileType: 3
