%YAML 1.1
%TAG !u! tag:unity3d.com,2011:
--- !u!114 &11400000
MonoBehaviour:
  m_ObjectHideFlags: 0
  m_CorrespondingSourceObject: {fileID: 0}
  m_PrefabInstance: {fileID: 0}
  m_PrefabAsset: {fileID: 0}
  m_GameObject: {fileID: 0}
  m_Enabled: 1
  m_EditorHideFlags: 0
  m_Script: {fileID: 11500000, guid: f9f82a7b449f0194dbe720a9c600ce63, type: 3}
  m_Name: LatinumTileBehaviour
  m_EditorClassIdentifier: 
  TileData:
    TileName: Latinum
    TileScore: 2
    TileSprite: {fileID: 2430929538064667862, guid: c7d0b19672e97fb45a8df695a8290c1a, type: 3}
    TileDescription: Latinum, the pinacle of luxury. Few leaves of this precious
      metal and the birthday being will know what proper pampering means. Besides
      its mesmerizing glitter it withstands any Acid damage.
  TileType: 8
