%YAML 1.1
%TAG !u! tag:unity3d.com,2011:
--- !u!114 &11400000
MonoBehaviour:
  m_ObjectHideFlags: 0
  m_CorrespondingSourceObject: {fileID: 0}
  m_PrefabInstance: {fileID: 0}
  m_PrefabAsset: {fileID: 0}
  m_GameObject: {fileID: 0}
  m_Enabled: 1
  m_EditorHideFlags: 0
  m_Script: {fileID: 11500000, guid: 56303de3a90ef3a468bb20f2e051054c, type: 3}
  m_Name: WeevilTileBehaviour
  m_EditorClassIdentifier: 
  TileData:
    TileName: Space weevil
    TileScore: 3
    TileSprite: {fileID: 6497437358957609759, guid: c7d0b19672e97fb45a8df695a8290c1a, type: 3}
    TileDescription: A pest and a delicacy! This bug will eat straight down through
      the cake if not stopped by baker's mastery. Eats Sponge, Low effort jam, Quanto-Bismol.
      Is very territorial and will kill other Weevils and die in the process.
  TileType: 7
